{
    "file": {
        "url": "https://store.storeimages.cdn-apple.com/4974/as-images.apple.com/is/image/AppleInc/aos/published/images/i/ma/imacpro/27/imacpro-27-retina-config-hero?wid=1200&hei=630&fmt=jpeg&qlt=95&op_sharpen=0&resMode=bicub&op_usm=0.5,0.5,0,0&iccEmbed=0&layer=comp&.v=1512501389796"
    },
    "thumb": {
        "url": "https://store.storeimages.cdn-apple.com/4974/as-images.apple.com/is/image/AppleInc/aos/published/images/i/ma/imacpro/27/imacpro-27-retina-config-hero?wid=600&hei=315&fmt=jpeg&qlt=95&op_sharpen=0&resMode=bicub&op_usm=0.5,0.5,0,0&iccEmbed=0&layer=comp&.v=1512501389796"
    }
}
